%YAML 1.1
%TAG !u! tag:unity3d.com,2011:
--- !u!1001 &7976242236415843648
PrefabInstance:
  m_ObjectHideFlags: 0
  serializedVersion: 2
  m_Modification:
    m_TransformParent: {fileID: 0}
    m_Modifications:
    - target: {fileID: 2568763833421110162, guid: d543684910527452ea7be63471da122e,
        type: 3}
      propertyPath: m_Sprite
      value: 
      objectReference: {fileID: 21300000, guid: cc9bd28e16b3f46cf92bf389d6716e3f,
        type: 3}
    - target: {fileID: 2561497300125847326, guid: d543684910527452ea7be63471da122e,
        type: 3}
      propertyPath: m_LocalPosition.x
      value: -0.31
      objectReference: {fileID: 0}
    - target: {fileID: 2561497300125847326, guid: d543684910527452ea7be63471da122e,
        type: 3}
      propertyPath: m_LocalPosition.y
      value: 0.685
      objectReference: {fileID: 0}
    - target: {fileID: 2561497300125847326, guid: d543684910527452ea7be63471da122e,
        type: 3}
      propertyPath: m_LocalScale.x
      value: 0.06298485
      objectReference: {fileID: 0}
    - target: {fileID: 2561497300125847326, guid: d543684910527452ea7be63471da122e,
        type: 3}
      propertyPath: m_LocalScale.y
      value: 0.06298485
      objectReference: {fileID: 0}
    - target: {fileID: 2561497300125847326, guid: d543684910527452ea7be63471da122e,
        type: 3}
      propertyPath: m_LocalScale.z
      value: 0.06298485
      objectReference: {fileID: 0}
    - target: {fileID: 1556219557, guid: d543684910527452ea7be63471da122e, type: 3}
      propertyPath: m_Name
      value: HabitatP
      objectReference: {fileID: 0}
    - target: {fileID: 1514753272120884859, guid: d543684910527452ea7be63471da122e,
        type: 3}
      propertyPath: type
      value: 3
      objectReference: {fileID: 0}
    - target: {fileID: 1514753272120884859, guid: d543684910527452ea7be63471da122e,
        type: 3}
      propertyPath: col
      value: 
      objectReference: {fileID: 4627434527088264300}
    - target: {fileID: 2050038524, guid: d543684910527452ea7be63471da122e, type: 3}
      propertyPath: m_LocalPosition.x
      value: 0
      objectReference: {fileID: 0}
    - target: {fileID: 2050038524, guid: d543684910527452ea7be63471da122e, type: 3}
      propertyPath: m_LocalPosition.y
      value: 0
      objectReference: {fileID: 0}
    - target: {fileID: 2050038524, guid: d543684910527452ea7be63471da122e, type: 3}
      propertyPath: m_LocalPosition.z
      value: 0
      objectReference: {fileID: 0}
    - target: {fileID: 2050038524, guid: d543684910527452ea7be63471da122e, type: 3}
      propertyPath: m_LocalRotation.x
      value: -0
      objectReference: {fileID: 0}
    - target: {fileID: 2050038524, guid: d543684910527452ea7be63471da122e, type: 3}
      propertyPath: m_LocalRotation.y
      value: -0
      objectReference: {fileID: 0}
    - target: {fileID: 2050038524, guid: d543684910527452ea7be63471da122e, type: 3}
      propertyPath: m_LocalRotation.z
      value: -0
      objectReference: {fileID: 0}
    - target: {fileID: 2050038524, guid: d543684910527452ea7be63471da122e, type: 3}
      propertyPath: m_LocalRotation.w
      value: 1
      objectReference: {fileID: 0}
    - target: {fileID: 2050038524, guid: d543684910527452ea7be63471da122e, type: 3}
      propertyPath: m_RootOrder
      value: 0
      objectReference: {fileID: 0}
    - target: {fileID: 2050038524, guid: d543684910527452ea7be63471da122e, type: 3}
      propertyPath: m_LocalEulerAnglesHint.x
      value: 0
      objectReference: {fileID: 0}
    - target: {fileID: 2050038524, guid: d543684910527452ea7be63471da122e, type: 3}
      propertyPath: m_LocalEulerAnglesHint.y
      value: 0
      objectReference: {fileID: 0}
    - target: {fileID: 2050038524, guid: d543684910527452ea7be63471da122e, type: 3}
      propertyPath: m_LocalEulerAnglesHint.z
      value: 0
      objectReference: {fileID: 0}
    - target: {fileID: 3439751423056172004, guid: d543684910527452ea7be63471da122e,
        type: 3}
      propertyPath: m_Color.g
      value: 1
      objectReference: {fileID: 0}
    - target: {fileID: 3439751423056172004, guid: d543684910527452ea7be63471da122e,
        type: 3}
      propertyPath: m_Color.b
      value: 1
      objectReference: {fileID: 0}
    - target: {fileID: 3439751423056172004, guid: d543684910527452ea7be63471da122e,
        type: 3}
      propertyPath: m_SortingOrder
      value: 0
      objectReference: {fileID: 0}
    - target: {fileID: 3439751423056172004, guid: d543684910527452ea7be63471da122e,
        type: 3}
      propertyPath: m_Color.r
      value: 1
      objectReference: {fileID: 0}
    - target: {fileID: 3439751423056172004, guid: d543684910527452ea7be63471da122e,
        type: 3}
      propertyPath: m_Sprite
      value: 
      objectReference: {fileID: 21300000, guid: bb583ee0583a04e029563fc38a3b6f6b,
        type: 3}
    - target: {fileID: 1556219559, guid: d543684910527452ea7be63471da122e, type: 3}
      propertyPath: m_Color.r
      value: 1
      objectReference: {fileID: 0}
    - target: {fileID: 1556219559, guid: d543684910527452ea7be63471da122e, type: 3}
      propertyPath: m_Color.g
      value: 0.6
      objectReference: {fileID: 0}
    - target: {fileID: 1556219559, guid: d543684910527452ea7be63471da122e, type: 3}
      propertyPath: m_Color.b
      value: 0.6081684
      objectReference: {fileID: 0}
    m_RemovedComponents: []
  m_SourcePrefab: {fileID: 100100000, guid: d543684910527452ea7be63471da122e, type: 3}
--- !u!61 &4627434527088264300 stripped
BoxCollider2D:
  m_CorrespondingSourceObject: {fileID: 3352574929310701868, guid: d543684910527452ea7be63471da122e,
    type: 3}
  m_PrefabInstance: {fileID: 7976242236415843648}
  m_PrefabAsset: {fileID: 0}
