%YAML 1.1
%TAG !u! tag:unity3d.com,2011:
--- !u!1045 &1
EditorBuildSettings:
  m_ObjectHideFlags: 0
  serializedVersion: 2
  m_Scenes:
  - enabled: 1
    path: Assets/Tanguy/Scenes/Menu.unity
    guid: 75587ee36c4774e7ba8ffb4b2674d408
  - enabled: 1
    path: Assets/Tanguy/Scenes/Niveau1.unity
    guid: 72a62f8ffc9f64ac387e28689c37dfac
  - enabled: 1
    path: Assets/Tanguy/Scenes/Niveau2.unity
    guid: 9fb2764ef1cd44a0eadfec13eacdb9d8
  - enabled: 1
    path: Assets/Tanguy/Scenes/Niveau3.unity
    guid: 2bd1bf2dfb02045b186bff7c8e786796
  - enabled: 1
    path: Assets/Tanguy/Scenes/Niveau4.unity
    guid: 319955501c98c4dd1a6e867c76d5010e
  - enabled: 1
    path: Assets/Tanguy/Scenes/Niveau5.unity
    guid: 1c023ccafecd1435a93dc0dbd4e37243
  - enabled: 1
    path: Assets/Tanguy/Scenes/Niveau6.unity
    guid: f5b7d66b92e5a49698aa433f2bf43829
  m_configObjects: {}
